id,name,src,dst,n_pages,page_size,time_ns
0,stream-copy,5,4,256,65536,3169491
1,stream-copy,4,5,256,65536,3206361
2,stream-copy,5,4,256,65536,3149080
3,stream-copy,4,5,256,65536,3251902
4,stream-copy,5,4,256,65536,3157100
5,stream-copy,4,5,256,65536,3184411
6,stream-copy,5,4,256,65536,3170360
7,stream-copy,4,5,256,65536,3172450
8,stream-copy,5,4,256,65536,3200501
9,stream-copy,4,5,256,65536,3137321
10,stream-copy,5,4,256,65536,3144920
11,stream-copy,4,5,256,65536,3155580
12,stream-copy,5,4,256,65536,3149270
13,stream-copy,4,5,256,65536,3218822
14,stream-copy,5,4,256,65536,3156731
15,stream-copy,4,5,256,65536,3229501
16,stream-copy,5,4,256,65536,3145490
17,stream-copy,4,5,256,65536,3163001
18,stream-copy,5,4,256,65536,3201241
19,stream-copy,4,5,256,65536,3167271
0,stream-copy,5,4,512,65536,6358822
1,stream-copy,4,5,512,65536,6395102
2,stream-copy,5,4,512,65536,6411082
3,stream-copy,4,5,512,65536,6432142
4,stream-copy,5,4,512,65536,6358652
5,stream-copy,4,5,512,65536,6357112
6,stream-copy,5,4,512,65536,6329082
7,stream-copy,4,5,512,65536,6372831
8,stream-copy,5,4,512,65536,6372992
9,stream-copy,4,5,512,65536,6352041
10,stream-copy,5,4,512,65536,6334541
11,stream-copy,4,5,512,65536,6371912
12,stream-copy,5,4,512,65536,6347462
13,stream-copy,4,5,512,65536,6411753
14,stream-copy,5,4,512,65536,6317651
15,stream-copy,4,5,512,65536,6352062
16,stream-copy,5,4,512,65536,6322281
17,stream-copy,4,5,512,65536,6369702
18,stream-copy,5,4,512,65536,6355471
19,stream-copy,4,5,512,65536,6378772
0,stream-copy,5,4,1024,65536,12714583
1,stream-copy,4,5,1024,65536,12798444
2,stream-copy,5,4,1024,65536,12644573
3,stream-copy,4,5,1024,65536,12725223
4,stream-copy,5,4,1024,65536,12725453
5,stream-copy,4,5,1024,65536,12818655
6,stream-copy,5,4,1024,65536,12736323
7,stream-copy,4,5,1024,65536,12626152
8,stream-copy,5,4,1024,65536,12702213
9,stream-copy,4,5,1024,65536,12789755
10,stream-copy,5,4,1024,65536,12664152
11,stream-copy,4,5,1024,65536,12670043
12,stream-copy,5,4,1024,65536,12646873
13,stream-copy,4,5,1024,65536,12707813
14,stream-copy,5,4,1024,65536,12629512
15,stream-copy,4,5,1024,65536,12752674
16,stream-copy,5,4,1024,65536,12678473
17,stream-copy,4,5,1024,65536,12741454
18,stream-copy,5,4,1024,65536,12645242
19,stream-copy,4,5,1024,65536,12657363
0,stream-copy,5,4,2048,65536,25184803
1,stream-copy,4,5,2048,65536,25195473
2,stream-copy,5,4,2048,65536,25209803
3,stream-copy,4,5,2048,65536,25365475
4,stream-copy,5,4,2048,65536,25202134
5,stream-copy,4,5,2048,65536,25407206
6,stream-copy,5,4,2048,65536,25189143
7,stream-copy,4,5,2048,65536,25315795
8,stream-copy,5,4,2048,65536,25278454
9,stream-copy,4,5,2048,65536,25259194
10,stream-copy,5,4,2048,65536,25158513
11,stream-copy,4,5,2048,65536,25333145
12,stream-copy,5,4,2048,65536,25300105
13,stream-copy,4,5,2048,65536,25226464
14,stream-copy,5,4,2048,65536,25220474
15,stream-copy,4,5,2048,65536,25390286
16,stream-copy,5,4,2048,65536,25263275
17,stream-copy,4,5,2048,65536,25250365
18,stream-copy,5,4,2048,65536,25266454
19,stream-copy,4,5,2048,65536,25452147
0,stream-copy,5,4,4096,65536,50188935
1,stream-copy,4,5,4096,65536,50589349
2,stream-copy,5,4,4096,65536,50438627
3,stream-copy,4,5,4096,65536,50126814
4,stream-copy,5,4,4096,65536,50303906
5,stream-copy,4,5,4096,65536,50786292
6,stream-copy,5,4,4096,65536,50090653
7,stream-copy,4,5,4096,65536,50113753
8,stream-copy,5,4,4096,65536,50233485
9,stream-copy,4,5,4096,65536,50583879
10,stream-copy,5,4,4096,65536,50469948
11,stream-copy,4,5,4096,65536,50215955
12,stream-copy,5,4,4096,65536,50229425
13,stream-copy,4,5,4096,65536,50539299
14,stream-copy,5,4,4096,65536,50275466
15,stream-copy,4,5,4096,65536,50443417
16,stream-copy,5,4,4096,65536,50303586
17,stream-copy,4,5,4096,65536,50828573
18,stream-copy,5,4,4096,65536,50394037
19,stream-copy,4,5,4096,65536,50215564
0,stream-copy,5,4,8192,65536,98937280
1,stream-copy,4,5,8192,65536,99323685
2,stream-copy,5,4,8192,65536,98579896
3,stream-copy,4,5,8192,65536,98881280
4,stream-copy,5,4,8192,65536,98751048
5,stream-copy,4,5,8192,65536,99559129
6,stream-copy,5,4,8192,65536,99174983
7,stream-copy,4,5,8192,65536,99417627
8,stream-copy,5,4,8192,65536,98933281
9,stream-copy,4,5,8192,65536,99636159
10,stream-copy,5,4,8192,65536,99015161
11,stream-copy,4,5,8192,65536,98630246
12,stream-copy,5,4,8192,65536,98616527
13,stream-copy,4,5,8192,65536,99414147
14,stream-copy,5,4,8192,65536,98870110
15,stream-copy,4,5,8192,65536,98944781
16,stream-copy,5,4,8192,65536,99531988
17,stream-copy,4,5,8192,65536,99162463
18,stream-copy,5,4,8192,65536,98608437
19,stream-copy,4,5,8192,65536,98882930
0,stream-copy,5,4,16384,65536,198088843
1,stream-copy,4,5,16384,65536,198622611
2,stream-copy,5,4,16384,65536,197949042
3,stream-copy,4,5,16384,65536,197403255
4,stream-copy,5,4,16384,65536,198256786
5,stream-copy,4,5,16384,65536,196685416
6,stream-copy,5,4,16384,65536,198204136
7,stream-copy,4,5,16384,65536,198774642
8,stream-copy,5,4,16384,65536,199128047
9,stream-copy,4,5,16384,65536,197222342
10,stream-copy,5,4,16384,65536,197454985
11,stream-copy,4,5,16384,65536,198358177
12,stream-copy,5,4,16384,65536,197696279
13,stream-copy,4,5,16384,65536,196539514
14,stream-copy,5,4,16384,65536,198570020
15,stream-copy,4,5,16384,65536,197344234
16,stream-copy,5,4,16384,65536,198001343
17,stream-copy,4,5,16384,65536,197007190
18,stream-copy,5,4,16384,65536,198165354
19,stream-copy,4,5,16384,65536,197930882
0,stream-copy,5,4,32768,65536,400562654
1,stream-copy,4,5,32768,65536,394001739
2,stream-copy,5,4,32768,65536,397197690
3,stream-copy,4,5,32768,65536,396884076
4,stream-copy,5,4,32768,65536,397545085
5,stream-copy,4,5,32768,65536,401475475
6,stream-copy,5,4,32768,65536,397307282
7,stream-copy,4,5,32768,65536,396892547
8,stream-copy,5,4,32768,65536,397168380
9,stream-copy,4,5,32768,65536,401853511
10,stream-copy,5,4,32768,65536,395673181
11,stream-copy,4,5,32768,65536,399451359
12,stream-copy,5,4,32768,65536,396095336
13,stream-copy,4,5,32768,65536,396978968
14,stream-copy,5,4,32768,65536,396418201
15,stream-copy,4,5,32768,65536,394722889
16,stream-copy,5,4,32768,65536,398728201
17,stream-copy,4,5,32768,65536,397874449
18,stream-copy,5,4,32768,65536,398644899
19,stream-copy,4,5,32768,65536,394802320
0,stream-copy,5,4,65536,65536,789241385
1,stream-copy,4,5,65536,65536,788575056
2,stream-copy,5,4,65536,65536,787938768
3,stream-copy,4,5,65536,65536,790723754
4,stream-copy,5,4,65536,65536,789088283
5,stream-copy,4,5,65536,65536,788807779
6,stream-copy,5,4,65536,65536,791159940
7,stream-copy,4,5,65536,65536,789161834
8,stream-copy,5,4,65536,65536,788040639
9,stream-copy,4,5,65536,65536,789355107
10,stream-copy,5,4,65536,65536,792215233
11,stream-copy,4,5,65536,65536,789055462
12,stream-copy,5,4,65536,65536,788376124
13,stream-copy,4,5,65536,65536,790688034
14,stream-copy,5,4,65536,65536,786718793
15,stream-copy,4,5,65536,65536,788556736
16,stream-copy,5,4,65536,65536,788369554
17,stream-copy,4,5,65536,65536,795039110
18,stream-copy,5,4,65536,65536,789243805
19,stream-copy,4,5,65536,65536,790734955
0,memcpy,5,4,256,65536,3312543
1,memcpy,4,5,256,65536,3268192
2,memcpy,5,4,256,65536,3268942
3,memcpy,4,5,256,65536,3302712
4,memcpy,5,4,256,65536,3250162
5,memcpy,4,5,256,65536,3327083
6,memcpy,5,4,256,65536,3246721
7,memcpy,4,5,256,65536,3322403
8,memcpy,5,4,256,65536,3275832
9,memcpy,4,5,256,65536,3259512
10,memcpy,5,4,256,65536,3291403
11,memcpy,4,5,256,65536,3262462
12,memcpy,5,4,256,65536,3294493
13,memcpy,4,5,256,65536,3283442
14,memcpy,5,4,256,65536,3297822
15,memcpy,4,5,256,65536,3254812
16,memcpy,5,4,256,65536,3257042
17,memcpy,4,5,256,65536,3292853
18,memcpy,5,4,256,65536,3270382
19,memcpy,4,5,256,65536,3311452
0,memcpy,5,4,512,65536,6523064
1,memcpy,4,5,512,65536,6538974
2,memcpy,5,4,512,65536,6535994
3,memcpy,4,5,512,65536,6516084
4,memcpy,5,4,512,65536,6502143
5,memcpy,4,5,512,65536,6539924
6,memcpy,5,4,512,65536,6519883
7,memcpy,4,5,512,65536,6560765
8,memcpy,5,4,512,65536,6574494
9,memcpy,4,5,512,65536,6512454
10,memcpy,5,4,512,65536,6481133
11,memcpy,4,5,512,65536,6521464
12,memcpy,5,4,512,65536,6528744
13,memcpy,4,5,512,65536,6553904
14,memcpy,5,4,512,65536,6492023
15,memcpy,4,5,512,65536,6496304
16,memcpy,5,4,512,65536,6526584
17,memcpy,4,5,512,65536,6514094
18,memcpy,5,4,512,65536,6510063
19,memcpy,4,5,512,65536,6504974
0,memcpy,5,4,1024,65536,12978967
1,memcpy,4,5,1024,65536,13055217
2,memcpy,5,4,1024,65536,13010947
3,memcpy,4,5,1024,65536,13032427
4,memcpy,5,4,1024,65536,13126248
5,memcpy,4,5,1024,65536,13128298
6,memcpy,5,4,1024,65536,13071228
7,memcpy,4,5,1024,65536,13092498
8,memcpy,5,4,1024,65536,13049647
9,memcpy,4,5,1024,65536,13064678
10,memcpy,5,4,1024,65536,13019348
11,memcpy,4,5,1024,65536,13033698
12,memcpy,5,4,1024,65536,13070638
13,memcpy,4,5,1024,65536,13103798
14,memcpy,5,4,1024,65536,13026247
15,memcpy,4,5,1024,65536,13058848
16,memcpy,5,4,1024,65536,13028677
17,memcpy,4,5,1024,65536,13158479
18,memcpy,5,4,1024,65536,13045227
19,memcpy,4,5,1024,65536,13023547
0,memcpy,5,4,2048,65536,25835882
1,memcpy,4,5,2048,65536,26071695
2,memcpy,5,4,2048,65536,26066555
3,memcpy,4,5,2048,65536,26012084
4,memcpy,5,4,2048,65536,25938093
5,memcpy,4,5,2048,65536,26068385
6,memcpy,5,4,2048,65536,25973643
7,memcpy,4,5,2048,65536,26026654
8,memcpy,5,4,2048,65536,25920243
9,memcpy,4,5,2048,65536,26153386
10,memcpy,5,4,2048,65536,25923133
11,memcpy,4,5,2048,65536,26040415
12,memcpy,5,4,2048,65536,26023274
13,memcpy,4,5,2048,65536,26362179
14,memcpy,5,4,2048,65536,25934413
15,memcpy,4,5,2048,65536,26109386
16,memcpy,5,4,2048,65536,26011904
17,memcpy,4,5,2048,65536,26146426
18,memcpy,5,4,2048,65536,25974294
19,memcpy,4,5,2048,65536,26077095
0,memcpy,5,4,4096,65536,51648483
1,memcpy,4,5,4096,65536,51798365
2,memcpy,5,4,4096,65536,51859456
3,memcpy,4,5,4096,65536,51926247
4,memcpy,5,4,4096,65536,51817006
5,memcpy,4,5,4096,65536,51946457
6,memcpy,5,4,4096,65536,51657253
7,memcpy,4,5,4096,65536,51937597
8,memcpy,5,4,4096,65536,51805485
9,memcpy,4,5,4096,65536,51968577
10,memcpy,5,4,4096,65536,51734084
11,memcpy,4,5,4096,65536,52018048
12,memcpy,5,4,4096,65536,51811265
13,memcpy,4,5,4096,65536,52011498
14,memcpy,5,4,4096,65536,51718684
15,memcpy,4,5,4096,65536,51882266
16,memcpy,5,4,4096,65536,51825455
17,memcpy,4,5,4096,65536,52063228
18,memcpy,5,4,4096,65536,51577982
19,memcpy,4,5,4096,65536,52095549
0,memcpy,5,4,8192,65536,101877938
1,memcpy,4,5,8192,65536,102083051
2,memcpy,5,4,8192,65536,101769237
3,memcpy,4,5,8192,65536,102086411
4,memcpy,5,4,8192,65536,101381072
5,memcpy,4,5,8192,65536,101828047
6,memcpy,5,4,8192,65536,101146119
7,memcpy,4,5,8192,65536,101860508
8,memcpy,5,4,8192,65536,101449823
9,memcpy,4,5,8192,65536,102246103
10,memcpy,5,4,8192,65536,101232350
11,memcpy,4,5,8192,65536,103026953
12,memcpy,5,4,8192,65536,101704746
13,memcpy,4,5,8192,65536,102914082
14,memcpy,5,4,8192,65536,101841208
15,memcpy,4,5,8192,65536,102700799
16,memcpy,5,4,8192,65536,102013380
17,memcpy,4,5,8192,65536,102937932
18,memcpy,5,4,8192,65536,101260071
19,memcpy,4,5,8192,65536,102554797
0,memcpy,5,4,16384,65536,202607512
1,memcpy,4,5,16384,65536,203315911
2,memcpy,5,4,16384,65536,202655333
3,memcpy,4,5,16384,65536,204187082
4,memcpy,5,4,16384,65536,202856885
5,memcpy,4,5,16384,65536,205093414
6,memcpy,5,4,16384,65536,203103728
7,memcpy,4,5,16384,65536,206320359
8,memcpy,5,4,16384,65536,202688583
9,memcpy,4,5,16384,65536,206045356
10,memcpy,5,4,16384,65536,202838834
11,memcpy,4,5,16384,65536,206342880
12,memcpy,5,4,16384,65536,202533761
13,memcpy,4,5,16384,65536,206311789
14,memcpy,5,4,16384,65536,202641622
15,memcpy,4,5,16384,65536,203440022
16,memcpy,5,4,16384,65536,202089785
17,memcpy,4,5,16384,65536,204381654
18,memcpy,5,4,16384,65536,203711286
19,memcpy,4,5,16384,65536,203383932
0,memcpy,5,4,32768,65536,406481789
1,memcpy,4,5,32768,65536,407947209
2,memcpy,5,4,32768,65536,406780234
3,memcpy,4,5,32768,65536,410878216
4,memcpy,5,4,32768,65536,407693235
5,memcpy,4,5,32768,65536,411012648
6,memcpy,5,4,32768,65536,408120300
7,memcpy,4,5,32768,65536,410931197
8,memcpy,5,4,32768,65536,406967766
9,memcpy,4,5,32768,65536,407993650
10,memcpy,5,4,32768,65536,407221089
11,memcpy,4,5,32768,65536,409975584
12,memcpy,5,4,32768,65536,407731116
13,memcpy,4,5,32768,65536,411269341
14,memcpy,5,4,32768,65536,407414362
15,memcpy,4,5,32768,65536,411212370
16,memcpy,5,4,32768,65536,407108058
17,memcpy,4,5,32768,65536,409522829
18,memcpy,5,4,32768,65536,407584624
19,memcpy,4,5,32768,65536,410250618
0,memcpy,5,4,65536,65536,812971419
1,memcpy,4,5,65536,65536,819707827
2,memcpy,5,4,65536,65536,812677736
3,memcpy,4,5,65536,65536,816759138
4,memcpy,5,4,65536,65536,813049791
5,memcpy,4,5,65536,65536,820959523
6,memcpy,5,4,65536,65536,812822858
7,memcpy,4,5,65536,65536,815615774
8,memcpy,5,4,65536,65536,813263684
9,memcpy,4,5,65536,65536,815630974
10,memcpy,5,4,65536,65536,812799408
11,memcpy,4,5,65536,65536,817047422
12,memcpy,5,4,65536,65536,815659235
13,memcpy,4,5,65536,65536,820916742
14,memcpy,5,4,65536,65536,811444411
15,memcpy,4,5,65536,65536,820523617
16,memcpy,5,4,65536,65536,812550654
17,memcpy,4,5,65536,65536,821170375
18,memcpy,5,4,65536,65536,815512332
19,memcpy,4,5,65536,65536,819506294
0,move-pages,4,5,256,65536,3481004
1,move-pages,5,4,256,65536,3194621
2,move-pages,4,5,256,65536,3210621
3,move-pages,5,4,256,65536,3213761
4,move-pages,4,5,256,65536,3162910
5,move-pages,5,4,256,65536,3204691
6,move-pages,4,5,256,65536,3162551
7,move-pages,5,4,256,65536,3203151
8,move-pages,4,5,256,65536,3190901
9,move-pages,5,4,256,65536,3145991
10,move-pages,4,5,256,65536,3153530
11,move-pages,5,4,256,65536,3142150
12,move-pages,4,5,256,65536,3154231
13,move-pages,5,4,256,65536,3192961
14,move-pages,4,5,256,65536,3151130
15,move-pages,5,4,256,65536,3150470
16,move-pages,4,5,256,65536,3195051
17,move-pages,5,4,256,65536,3145071
18,move-pages,4,5,256,65536,3155961
19,move-pages,5,4,256,65536,3200221
0,move-pages,4,5,512,65536,6839518
1,move-pages,5,4,512,65536,6395412
2,move-pages,4,5,512,65536,6330222
3,move-pages,5,4,512,65536,6356172
4,move-pages,4,5,512,65536,6344212
5,move-pages,5,4,512,65536,6346802
6,move-pages,4,5,512,65536,6297801
7,move-pages,5,4,512,65536,6409943
8,move-pages,4,5,512,65536,6343292
9,move-pages,5,4,512,65536,6299090
10,move-pages,4,5,512,65536,6357081
11,move-pages,5,4,512,65536,6334861
12,move-pages,4,5,512,65536,6300881
13,move-pages,5,4,512,65536,6351072
14,move-pages,4,5,512,65536,6338612
15,move-pages,5,4,512,65536,6311672
16,move-pages,4,5,512,65536,6349232
17,move-pages,5,4,512,65536,6347262
18,move-pages,4,5,512,65536,6302241
19,move-pages,5,4,512,65536,6340811
0,move-pages,4,5,1024,65536,13596974
1,move-pages,5,4,1024,65536,12699433
2,move-pages,4,5,1024,65536,12651403
3,move-pages,5,4,1024,65536,12620122
4,move-pages,4,5,1024,65536,12638812
5,move-pages,5,4,1024,65536,12839575
6,move-pages,4,5,1024,65536,12645582
7,move-pages,5,4,1024,65536,12665172
8,move-pages,4,5,1024,65536,12665763
9,move-pages,5,4,1024,65536,12821025
10,move-pages,4,5,1024,65536,12667392
11,move-pages,5,4,1024,65536,12680553
12,move-pages,4,5,1024,65536,12663532
13,move-pages,5,4,1024,65536,12837215
14,move-pages,4,5,1024,65536,12668732
15,move-pages,5,4,1024,65536,12694943
16,move-pages,4,5,1024,65536,12653362
17,move-pages,5,4,1024,65536,12832834
18,move-pages,4,5,1024,65536,12656593
19,move-pages,5,4,1024,65536,12673982
0,move-pages,4,5,2048,65536,27015467
1,move-pages,5,4,2048,65536,25537538
2,move-pages,4,5,2048,65536,25115542
3,move-pages,5,4,2048,65536,25042541
4,move-pages,4,5,2048,65536,25175353
5,move-pages,5,4,2048,65536,25179303
6,move-pages,4,5,2048,65536,25145133
7,move-pages,5,4,2048,65536,25216714
8,move-pages,4,5,2048,65536,25105423
9,move-pages,5,4,2048,65536,25203403
10,move-pages,4,5,2048,65536,25159253
11,move-pages,5,4,2048,65536,25201733
12,move-pages,4,5,2048,65536,25153193
13,move-pages,5,4,2048,65536,25207304
14,move-pages,4,5,2048,65536,25104923
15,move-pages,5,4,2048,65536,25188613
16,move-pages,4,5,2048,65536,25110222
17,move-pages,5,4,2048,65536,25154143
18,move-pages,4,5,2048,65536,25209054
19,move-pages,5,4,2048,65536,25228414
0,move-pages,4,5,4096,65536,53894772
1,move-pages,5,4,4096,65536,50279696
2,move-pages,4,5,4096,65536,50130544
3,move-pages,5,4,4096,65536,50133564
4,move-pages,4,5,4096,65536,50136364
5,move-pages,5,4,4096,65536,50501928
6,move-pages,4,5,4096,65536,50126414
7,move-pages,5,4,4096,65536,50242895
8,move-pages,4,5,4096,65536,50053622
9,move-pages,5,4,4096,65536,50436638
10,move-pages,4,5,4096,65536,50051033
11,move-pages,5,4,4096,65536,50286736
12,move-pages,4,5,4096,65536,50165284
13,move-pages,5,4,4096,65536,50463878
14,move-pages,4,5,4096,65536,50058563
15,move-pages,5,4,4096,65536,50201695
16,move-pages,4,5,4096,65536,50132834
17,move-pages,5,4,4096,65536,50471448
18,move-pages,4,5,4096,65536,50137104
19,move-pages,5,4,4096,65536,50352047
0,move-pages,4,5,8192,65536,107366609
1,move-pages,5,4,8192,65536,100196557
2,move-pages,4,5,8192,65536,99944983
3,move-pages,5,4,8192,65536,100003934
4,move-pages,4,5,8192,65536,100052185
5,move-pages,5,4,8192,65536,100531591
6,move-pages,4,5,8192,65536,100097415
7,move-pages,5,4,8192,65536,100294118
8,move-pages,4,5,8192,65536,100059875
9,move-pages,5,4,8192,65536,100246287
10,move-pages,4,5,8192,65536,99938893
11,move-pages,5,4,8192,65536,100286888
12,move-pages,4,5,8192,65536,99776821
13,move-pages,5,4,8192,65536,100401639
14,move-pages,4,5,8192,65536,99908163
15,move-pages,5,4,8192,65536,100359789
16,move-pages,4,5,8192,65536,99924044
17,move-pages,5,4,8192,65536,100439899
18,move-pages,4,5,8192,65536,100059005
19,move-pages,5,4,8192,65536,100359559
0,move-pages,4,5,16384,65536,214300542
1,move-pages,5,4,16384,65536,200128620
2,move-pages,4,5,16384,65536,199417981
3,move-pages,5,4,16384,65536,199459641
4,move-pages,4,5,16384,65536,199155797
5,move-pages,5,4,16384,65536,202474020
6,move-pages,4,5,16384,65536,199270199
7,move-pages,5,4,16384,65536,200276822
8,move-pages,4,5,16384,65536,199356250
9,move-pages,5,4,16384,65536,202356909
10,move-pages,4,5,16384,65536,199315349
11,move-pages,5,4,16384,65536,199934538
12,move-pages,4,5,16384,65536,198971795
13,move-pages,5,4,16384,65536,202207817
14,move-pages,4,5,16384,65536,199352220
15,move-pages,5,4,16384,65536,199945067
16,move-pages,4,5,16384,65536,199550863
17,move-pages,5,4,16384,65536,202328238
18,move-pages,4,5,16384,65536,199208918
19,move-pages,5,4,16384,65536,200138030
0,move-pages,4,5,32768,65536,427816884
1,move-pages,5,4,32768,65536,404394553
2,move-pages,4,5,32768,65536,398181614
3,move-pages,5,4,32768,65536,398007881
4,move-pages,4,5,32768,65536,398249924
5,move-pages,5,4,32768,65536,399265877
6,move-pages,4,5,32768,65536,397983731
7,move-pages,5,4,32768,65536,400966079
8,move-pages,4,5,32768,65536,398588148
9,move-pages,5,4,32768,65536,398770131
10,move-pages,4,5,32768,65536,398193043
11,move-pages,5,4,32768,65536,400821007
12,move-pages,4,5,32768,65536,398484177
13,move-pages,5,4,32768,65536,399194596
14,move-pages,4,5,32768,65536,398037251
15,move-pages,5,4,32768,65536,398413877
16,move-pages,4,5,32768,65536,398425996
17,move-pages,5,4,32768,65536,399242367
18,move-pages,4,5,32768,65536,398540118
19,move-pages,5,4,32768,65536,401072811
0,move-pages,4,5,65536,65536,854224950
1,move-pages,5,4,65536,65536,799840941
2,move-pages,4,5,65536,65536,797812495
3,move-pages,5,4,65536,65536,797787955
4,move-pages,4,5,65536,65536,797480081
5,move-pages,5,4,65536,65536,802016319
6,move-pages,4,5,65536,65536,797918047
7,move-pages,5,4,65536,65536,800592591
8,move-pages,4,5,65536,65536,797716864
9,move-pages,5,4,65536,65536,803655480
10,move-pages,4,5,65536,65536,797842356
11,move-pages,5,4,65536,65536,800683972
12,move-pages,4,5,65536,65536,798026578
13,move-pages,5,4,65536,65536,804615363
14,move-pages,4,5,65536,65536,797190187
15,move-pages,5,4,65536,65536,798671156
16,move-pages,4,5,65536,65536,797018625
17,move-pages,5,4,65536,65536,804371589
18,move-pages,4,5,65536,65536,798538744
19,move-pages,5,4,65536,65536,800826134
